{
    "fieldsets": [
        {
        "id": "header",
        "label": "Header"
        },
        {
        "id": "homepage",
        "label": "Homepage settings"
        },
        {
        "id": "slideshow_1",
        "label": "Slideshow 1"
        },
        {
        "id": "slideshow_2",
        "label": "Slideshow 2"
        },
        {
        "id": "slideshow_3",
        "label": "Slideshow 3"
        },
        {
        "id": "slideshow_4",
        "label": "Slideshow 4"
        },
        {
        "id": "slideshow_5",
        "label": "Slideshow 5"
        },
        {
        "id": "homepage_banner_1",
        "label": "Banner 1"
        },
        {
        "id": "homepage_banner_2",
        "label": "Banner 2"
        },
        {
        "id": "product",
        "label": "Product settings"
        },
        {
        "id": "recent",
        "label": "Recent sales popup"
        },
        {
        "id": "product_styling",
        "label": "Product styling"
        },
        {
        "id": "cart",
        "label": "Cart settings"
        },
        {
        "id": "footer",
        "label": "Footer settings"
        },
        {
        "id": "store",
        "label": "Other settings"
        },
        {
        "id": "social",
        "label": "Social media links"
        },
        {
        "id": "whatsapp",
        "label": "Whatsapp settings"
        }
    ],

    "images": [
        {
            "id": "header_logo",
            "label": "Logo",
            "description": "Your homepage logo",
            "fieldset": "header"
        },
        {
            "id": "header_logo_alternate",
            "label": "Logo Alternate",
            "description": "Your store logo",
            "fieldset": "header"
        },
        {
            "id": "og_image",
            "label": "OG image",
            "description": "Your store OG image for SEO",
			"fieldset": "header"
        },
        {
            "id": "slideshow_1",
            "label": "Desktop image",
            "description": "1000px by 500px images recommended",
            "fieldset": "slideshow_1"
        },
        {
            "id": "slideshow_2",
            "label": "Desktop image",
            "description": "1000px by 500px images recommended",
            "fieldset": "slideshow_2"
        },
        {
            "id": "slideshow_3",
            "label": "Desktop image",
            "description": "1000px by 500px images recommended",
            "fieldset": "slideshow_3"
        },
        {
            "id": "slideshow_4",
            "label": "Desktop image",
            "description": "1000px by 500px images recommended",
            "fieldset": "slideshow_4"
        },
        {
            "id": "slideshow_5",
            "label": "Desktop image",
            "description": "1000px by 500px images recommended",
            "fieldset": "slideshow_5"
        },
        {
            "id": "mobile_slideshow_1",
            "label": "Mobile image (optional)",
            "description": "500px by 1000px images recommended",
            "fieldset": "slideshow_1"
        },
        {
            "id": "mobile_slideshow_2",
            "label": "Mobile image (optional)",
            "description": "500px by 1000px images recommended",
            "fieldset": "slideshow_2"
        },
        {
            "id": "mobile_slideshow_3",
            "label": "Mobile image (optional)",
            "description": "500px by 1000px images recommended",
            "fieldset": "slideshow_3"
        },
        {
            "id": "mobile_slideshow_4",
            "label": "Mobile image (optional)",
            "description": "500px by 1000px images recommended",
            "fieldset": "slideshow_4"
        },
        {
            "id": "mobile_slideshow_5",
            "label": "Mobile image (optional)",
            "description": "500px by 1000px images recommended",
            "fieldset": "slideshow_5"
        },
        {
            "id": "banner_small_first",
            "label": "First small banner",
            "description": "Good for an image up to 1000x500 px",
            "fieldset": "homepage_banner_1"
        },
        {
            "id": "banner_small_second",
            "label": "Second small banner",
            "description": "Good for an image up to 1000x500 px",
            "fieldset": "homepage_banner_2"
        },
        {
            "id": "favourite_icon",
            "label": "Favicon",
            "description": "Good for an image up to 30x30 px",
            "fieldset": "store"
        }
    ],

    "colors": [
        {
            "id": "navbar_link",
            "label": "Header text color",
            "default": "#fff",
            "fieldset": "homepage"
        },
        {
            "id": "navbar_link_hover",
            "label": "Header text hover color",
            "default": "#000",
            "fieldset": "homepage"
        },
        {
            "id": "navbar_bg",
            "label": "Mobile navbar background color",
            "default": "#000",
            "fieldset": "homepage"
        },
        {
            "id": "custom_label_bg",
            "label": "Custom label color",
            "default": "#000",
            "fieldset": "homepage"
        },
        {
            "id": "custom_label_text",
            "label": "Custom label text color",
            "default": "#fff",
            "fieldset": "homepage"
        },
        {
        "id": "slideshow_text",
            "label": "Slideshow text color",
            "default": "#fff",
            "fieldset": "homepage"
        },
        {
        "id": "slideshow_text_btn",
            "label": "Slideshow button text color",
            "default": "#212529",
            "fieldset": "homepage"
        },
        {
        "id": "slideshow_btn",
            "label": "Slideshow button color",
            "default": "#f8f9fa",
            "fieldset": "homepage"
        },
        {
        "id": "slideshow_btn_hover_text",
            "label": "Slideshow button hover text color",
            "default": "#f8f9fa",
            "fieldset": "homepage"
        },
        {
        "id": "slideshow_btn_hover",
            "label": "Slideshow button hover color",
            "default": "#212529",
            "fieldset": "homepage"
        },
        {
            "id": "body_text",
            "label": "Text color",
            "default": "#000",
            "fieldset": "store"
        },
        {
            "id": "a_link",
            "label": "Link color",
            "default": "#000",
            "fieldset": "store"
        },
        {
            "id": "a_link_hover",
            "label": "Link hover color",
            "default": "#444",
            "fieldset": "store"
        },
        {
            "id": "checkout_btn_bg",
            "label": "Checkout button color",
            "default": "#000",
            "fieldset": "cart"
        },
        {
            "id": "checkout_btn_text",
            "label": "Checkout button text color",
            "default": "#fff",
            "fieldset": "cart"
        },
        {
            "id": "buy_now_btn_bg",
            "label": "Buy now button color",
            "default": "#000",
            "fieldset": "product_styling"
        },
        {
            "id": "buy_now_btn_text",
            "label": "Buy now button text color",
            "default": "#fff",
            "fieldset": "product_styling"
        },
        {
            "id": "buy_now_btn_border",
            "label": "Buy now button border color",
            "default": "#000",
            "fieldset": "product_styling"
        },
        {
            "id": "add_to_cart_btn_bg",
            "label": "Add to cart button color",
            "default": "#000",
            "fieldset": "product_styling"
        },
        {
            "id": "add_to_cart_btn_text",
            "label": "Add to cart button text color",
            "default": "#fff",
            "fieldset": "product_styling"
        },
        {
            "id": "add_to_cart_btn_border",
            "label": "Add to cart button border color",
            "default": "#000",
            "fieldset": "product_styling"
        },
        {
            "id": "add_to_cart_alternate_btn_bg",
            "label": "Add to cart alternate button color",
            "default": "#fff",
            "fieldset": "product_styling"
        },
        {
            "id": "add_to_cart_alternate_btn_text",
            "label": "Add to cart alternate button text color",
            "default": "#000",
            "fieldset": "product_styling"
        },
        {
            "id": "add_to_cart_alternate_btn_border",
            "label": "Add to cart alternate button border color",
            "default": "#000",
            "fieldset": "product_styling"
        },
        {
            "id": "after_less_price",
            "label": "After less price color",
            "default": "#ff0000",
            "fieldset": "product_styling"
        },
        {
            "id": "btn_bg",
            "label": "Default button color",
            "default": "#fff",
            "fieldset": "store"
        },
        {
            "id": "btn_text",
            "label": "Default button text color",
            "default": "#000",
            "fieldset": "store"
        },
        {
            "id": "btn_border",
            "label": "Default button border color",
            "default": "#000",
            "fieldset": "store"
        },
        {
            "id": "top_menu_icon",
            "label": "Menu icon color",
            "default": "#000",
            "fieldset": "store"
        },
        {
            "id": "cart_icon_badge",
            "label": "Cart icon badge color",
            "default": "#000",
            "fieldset": "store"
        },
        {
            "id": "cart_icon_badge_text",
            "label": "Cart icon badge text color",
            "default": "#fff",
            "fieldset": "store"
        },
        {
            "id": "nav_link",
            "label": "Header text color",
            "default": "#000",
            "fieldset": "header"
        },
        {
            "id": "nav_link_hover",
            "label": "Header text hover color",
            "default": "#000",
            "fieldset": "header"
        },
        {
            "id": "nav_bg",
            "label": "Mobile navbar background color",
            "default": "#fff",
            "fieldset": "header"
        },
        {
            "id": "announcement_bar_bg_color",
            "label": "Announcement bar background color",
            "default": "#000",
            "fieldset": "header"
        },
        {
            "id": "announcement_bar_text_color",
            "label": "Announcement bar text color",
            "default": "#fff",
            "fieldset": "header"
        }
    ],

    "options": [
        {
           "id": "featured_products_number",
           "label": "Featured products amount",
           "type": "select",
           "options":
                [
                    ["16", "16"],
                    ["12", "12"],
                    ["9", "9"],
                    ["8", "8"],
                    ["6", "6"],
                    ["4", "4"],
                    ["3", "3"],
                    ["2", "2"],
                    ["1", "1"]
                ],
            "default": "8",
            "fieldset": "homepage"
        },
        {
           "id": "grid_column",
           "label": "Desktop grid layout",
           "type": "select",
           "options":
                [
                    ["Four column", "col-md-3"],
                    ["Three column", "col-md-4"],
                    ["Two column", "col-md-6"],
                    ["One column", "col-md-12"]
                ],
            "default": "col-md-4",
            "fieldset": "product"
        },
        {
           "id": "mobile_grid_column",
           "label": "Mobile grid layout",
           "type": "select",
           "options":
                [
                    ["Four column", "col-3"],
                    ["Three column", "col-4"],
                    ["Two column", "col-6"],
                    ["One column", "col-12"]
                ],
            "default": "col-6",
            "fieldset": "product"
        },
        {
           "id": "image_gallery_type",
           "label": "Product image gallery type",
           "type": "select",
           "options":
                [
                    ["Image slider", "image_slider"],
                    ["Image stacked", "image_stacked"]
                ],
            "default": "image_slider",
            "fieldset": "product"
        },
        {
            "id": "hd_featured_image",
            "label": "Use HD featured image",
            "type": "boolean",
            "default": false,
            "fieldset": "product",
            "description": "Show HD featured image for product that's in list page."
        },
        {
            "id": "display_atome_price",
            "label": "Product price for Atome",
            "type": "boolean",
            "default": false,
			"fieldset": "product",
            "description": "Display product price for Atome"
        },
        {
            "id": "buy_now_btn",
            "label": "Enable buy now button",
            "type": "boolean",
            "default": true,
            "fieldset": "product"
        },
        {
            "id": "add_to_cart_btn",
            "label": "Enable add to cart button",
            "type": "boolean",
            "default": true,
            "fieldset": "product"
        },
        {
            "id": "sticky_btn",
            "label": "Enable sticky button",
            "type": "boolean",
            "default": true,
            "fieldset": "product"
        },
        {
            "id": "related_products",
            "label": "Enable related products",
            "type": "boolean",
            "default": true,
            "fieldset": "product"
        },
        {
            "id": "logo_size",
            "label": "Logo width",
            "type": "text",
            "default": "160",
            "description": "Example: 160",
            "fieldset": "header"
        },
        {
            "id": "product_reviews",
            "label": "Product reviews",
            "type": "boolean",
            "default": false,
            "description": "Display product reviews",
            "fieldset": "product"
        },
        {
            "id": "related_products_text",
            "label": "Related products text label",
            "type": "text",
            "default": "Related Products",
            "description": "Example : Related Products",
            "fieldset": "product"
        },
        {
            "id": "slideshow_banner",
            "label": "Show homepage slideshow",
            "type": "boolean",
            "default": true,
            "fieldset": "homepage"
        },
        {
            "id": "banner_small_first",
            "label": "Show first small banner",
            "type": "boolean",
            "default": false,
            "fieldset": "homepage"
        },
        {
            "id": "banner_small_second",
            "label": "Show second small banner",
            "type": "boolean",
            "default": false,
            "fieldset": "homepage"
        },
        {
            "id": "featured_products",
            "label": "Show featured products on homepage",
            "type": "boolean",
            "default": true,
            "fieldset": "homepage"
        },
        {
            "id": "featured_products_btn",
            "label": "Show view all products button on homepage",
            "type": "boolean",
            "default": true,
            "fieldset": "homepage"
        },
        {
            "id": "footer_menu",
            "label": "Show footer menu on homepage",
            "type": "boolean",
            "default": true,
            "fieldset": "footer"
        },
        {
            "id": "social_media",
            "label": "Show social media icon on footer",
            "type": "boolean",
            "default": true,
            "fieldset": "footer"
        },
        {
            "id": "slideshow_1_link",
            "label": "Slides 1 URL",
            "type": "text",
            "description": "Example /products",
            "default": "/products",
            "fieldset": "slideshow_1"
        },
        {
            "id": "slideshow_1_subtext",
            "label": "Slides 1 sub text",
            "type": "text",
            "description": "Example: New Arrival",
            "default": "NEW ARRIVAL",
            "fieldset": "slideshow_1"
        },
        {
            "id": "slideshow_1_maintext",
            "label": "Slides 1 main text",
            "type": "text",
            "description": "Example: Collection",
            "default": "Collection",
            "fieldset": "slideshow_1"
        },
        {
            "id": "slideshow_1_ctatext",
            "label": "Slides 1 button",
            "type": "text",
            "description": "Example: SHOP NOW",
            "default": "SHOP NOW",
            "fieldset": "slideshow_1"
        },
        {
            "id": "slideshow_2_link",
            "label": "Slides 2 URL",
            "type": "text",
            "description": "Example /products",
            "default": "/products",
            "fieldset": "slideshow_2"
        },
        {
            "id": "slideshow_2_subtext",
            "label": "Slides 2 sub text",
            "type": "text",
            "description": "Example: New Arrival",
            "default": "NEW ARRIVAL",
            "fieldset": "slideshow_2"
        },
        {
            "id": "slideshow_2_maintext",
            "label": "Slides 2 main text",
            "type": "text",
            "description": "Example: Collection",
            "default": "Collection",
            "fieldset": "slideshow_2"
        },
        {
            "id": "slideshow_2_ctatext",
            "label": "Slides 2 button",
            "type": "text",
            "description": "Example: SHOP NOW",
            "default": "SHOP NOW",
            "fieldset": "slideshow_2"
        },
        {
            "id": "slideshow_3_link",
            "label": "Slides 3 URL",
            "type": "text",
            "description": "Example /products",
            "default": "/products",
            "fieldset": "slideshow_3"
        },
        {
            "id": "slideshow_3_subtext",
            "label": "Slides 3 sub text",
            "type": "text",
            "description": "Example: New Arrival",
            "default": "NEW ARRIVAL",
            "fieldset": "slideshow_3"
        },
        {
            "id": "slideshow_3_maintext",
            "label": "Slides 3 main text",
            "type": "text",
            "description": "Example: Collection",
            "default": "Collection",
            "fieldset": "slideshow_3"
        },
        {
            "id": "slideshow_3_ctatext",
            "label": "Slides 3 button",
            "type": "text",
            "description": "Example: SHOP NOW",
            "default": "SHOP NOW",
            "fieldset": "slideshow_3"
        },
        {
            "id": "slideshow_4_link",
            "label": "Slides 4 URL",
            "type": "text",
            "description": "Example /products",
            "default": "/products",
            "fieldset": "slideshow_4"
        },
        {
            "id": "slideshow_4_subtext",
            "label": "Slides 4 sub text",
            "type": "text",
            "description": "Example: New Arrival",
            "default": "NEW ARRIVAL",
            "fieldset": "slideshow_4"
        },
        {
            "id": "slideshow_4_maintext",
            "label": "Slides 4 main text",
            "type": "text",
            "description": "Example: Collection",
            "default": "Collection",
            "fieldset": "slideshow_4"
        },
        {
            "id": "slideshow_4_ctatext",
            "label": "Slides 4 button",
            "type": "text",
            "description": "Example: SHOP NOW",
            "default": "SHOP NOW",
            "fieldset": "slideshow_4"
        },
        {
            "id": "slideshow_5_link",
            "label": "Slides 5 URL",
            "type": "text",
            "description": "Example /products",
            "default": "/products",
            "fieldset": "slideshow_5"
        },
        {
            "id": "slideshow_5_subtext",
            "label": "Slides 5 sub text",
            "type": "text",
            "description": "Example: New Arrival",
            "default": "NEW ARRIVAL",
            "fieldset": "slideshow_5"
        },
        {
            "id": "slideshow_5_maintext",
            "label": "Slides 5 main text",
            "type": "text",
            "description": "Example: Collection",
            "default": "Collection",
            "fieldset": "slideshow_5"
        },
        {
            "id": "slideshow_5_ctatext",
            "label": "Slides 5 button",
            "type": "text",
            "description": "Example: SHOP NOW",
            "default": "SHOP NOW",
            "fieldset": "slideshow_5"
        },
        {
            "id": "banner_small_first_link",
            "label": "First small banner URL",
            "type": "text",
            "description": "Example /products",
            "default": "/products",
            "fieldset": "homepage_banner_1"
        },
        {
            "id": "banner_small_second_link",
            "label": "Second small banner URL",
            "type": "text",
            "description": "Example /products",
            "default": "/products",
            "fieldset": "homepage_banner_2"
        },
        {
            "id": "featured_text",
            "label": "Featured text label",
            "type": "text",
            "description": "Example : Featured products",
            "default": "Featured products",
            "fieldset": "homepage"
        },
        {
            "id": "announcement_text",
            "label": "Site announcement text",
            "type": "text",
            "description": "",
            "fieldset": "header"
        },
        {
            "id": "announcement_link",
            "label": "Site announcement link",
            "type": "text",
            "description": "Example /products",
            "fieldset": "header"
        },
        {
            "id": "cart_instruction",
            "label": "Shopping cart info",
            "type": "text",
            "description": "Example: Free shipping for order above RM200",
            "fieldset": "cart"
        },
        {
            "id": "cart_extra_info",
            "label": "Shopping cart extra info",
            "type": "text",
            "default": "Order notes",
            "description": "Example: Order notes, shipping instructions etc",
            "fieldset": "cart"
        },
        {
            "id": "facebook",
            "label": "Facebook URL",
            "type": "text",
            "description": "Example : https://facebook.com/shoppego",
            "fieldset": "social"
        },
        {
            "id": "instagram",
            "label": "Instagram URL",
            "type": "text",
            "description": "Example : https://instagram.com/shoppego",
            "fieldset": "social"
        },
        {
            "id": "youtube",
            "label": "Youtube URL",
            "type": "text",
            "description": "Example : https://youtube.com/user/shoppego",
            "fieldset": "social"
        },
        {
            "id": "twitter",
            "label": "Twitter URL",
            "type": "text",
            "description": "Example : https://twitter.com/shoppego",
            "fieldset": "social"
        },
        {
            "id": "tiktok",
            "label": "TikTok URL",
            "type": "text",
            "description": "Example : https://tiktok.com/shoppego",
            "fieldset": "social"
        },
        {
            "id": "main_menu_handle",
            "label": "Main menu handle",
            "type": "text",
            "description": "Example : main_menu",
            "default": "main_menu",
            "fieldset": "header"
        },
        {
            "id": "footer_menu_handle",
            "label": "Footer menu handle",
            "type": "text",
            "description": "Example : footer_menu",
            "default": "footer_menu",
            "fieldset": "footer"
        },
        {
            "id": "whatsapp_number",
            "label": "Phone number",
            "type": "text",
            "description": "Example : 6012345678",
            "fieldset": "whatsapp"
        },
        {
            "id": "whatsapp_text",
            "label": "Button text",
            "type": "text",
            "description": "Example : CONTACT US",
            "default": "CONTACT US",
            "fieldset": "whatsapp"
        },
        {
            "id": "whatsapp_general_text",
            "label": "General inquiry message",
            "type": "text",
            "description": "Example : Web Inquiry",
            "default": "Web Inquiry",
            "fieldset": "whatsapp"
        },
        {
            "id": "whatsapp_product_text",
            "label": "Product inquiry message",
            "type": "text",
            "description": "Example : I'm interested in",
            "default": "I'm interested in",
            "fieldset": "whatsapp"
        },
        {
            "id": "recent_sales",
            "label": "Recent sales notifications",
            "type": "boolean",
            "default": false,
            "fieldset": "recent",
            "description": "Enable recent sales JSON popup notifications"
        },
        {
            "id": "recent_sales_total_order_price",
            "label": "Total order price",
            "type": "boolean",
            "default": false,
            "fieldset": "recent",
            "description": "Show total order price in recent sales JSON popup notifications"
        },
        {
            "id": "recent_sales_order_timeago",
            "label": "Order time's ago",
            "type": "boolean",
            "default": true,
            "fieldset": "recent",
            "description": "Show order time's ago in recent sales JSON popup notifications"
        },
        {
            "id": "custom_meta",
            "label": "Custom meta",
            "type": "textarea",
            "rows": 4,
            "description": "Example : <meta name='google-site-verification' content='absDfGH-AbCDFgy_wQGCZ9ImAsaGRnBbpDfWnokyfGc'>",
            "fieldset": "store"
        },
        {
            "id": "custom_css",
            "label": "Custom CSS style",
            "type": "textarea",
            "rows": 4,
            "description": "Example : .footer { color:black; }",
            "fieldset": "store"
        },
        {
            "id": "buy_now_txt",
            "label": "Buy Now button text",
            "type": "text",
            "description": "Example: Beli Sekarang",
            "fieldset": "product"
        },
		{
            "id": "search_menu",
            "label": "Search menu",
            "type": "boolean",
            "default": false,
            "fieldset": "header",
            "description": "Show search menu on main menu"
        },
		{
            "id": "recent_name",
            "label": "Customer name",
            "type": "text",
            "description": "Example : Someone",
            "default": "Someone",
            "fieldset": "recent"
        },
        {
            "id": "login_menu",
            "label": "Login menu",
            "type": "boolean",
            "default": false,
            "fieldset": "header",
            "description": "Show Login menu on main menu"
        },
        {
            "id": "footer_company_detail",
            "label": "Company detail",
            "type": "text",
            "description": "Example: Syarikat Sdn. Bhd. (123456)",
			"default": "",
			"fieldset": "footer"
        }
    ]
}